Day 6 Alchemical Reduction | Advent of Code 2018
…
get_sumdist_to_all_locations <- function(x2, y2) {
  sum(abs(input$x - x2) + abs(input$y - y2))
}

grid_sumdist <- grid %>% 
  mutate(sumdist = pmap_int(., get_sumdist_to_all_locations)) %>% 
  filter(sumdist < 10000)

# Check for gaps
grid_sumdist %>% 
  count(x) %>% 
  arrange(n)

## # A tibble: 224 x 2
##        x     n
##    <int> <int>
##  1    80    10
##  2   303    23
##  3    81    33
##  4   302    37
##  5    82    50
##  6   301    50
##  7   300    62
##  8    83    65
##  9   299    70
## 10    84    74
## # ... with 214 more rows

grid_sumdist %>% 
  count(y) %>% 
  arrange(n)

## # A tibble: 240 x 2
##        y     n
##    <int> <int>
##  1   309    34
##  2    70    43
##  3    71    53
##  4   308    53
##  5    72    61
##  6   307    62
##  7    73    68
##  8   306    71
##  9    74    75
## 10   305    79
## # ... with 230 more rows
…
