Day 1 Chronal Calibration | Advent of Code 2018
…
sum(puzzle_input)

## [1] 472

1.2 What is the first frequency your device reaches twice?

Let’s create a cute little tibble.

(tib <- tibble(
  input = puzzle_input, 
  cumsum = cumsum(input),
  index = seq(1:length(input))
  ))

## # A tibble: 1,000 x 3
##    input cumsum index
##    <dbl>  <dbl> <int>
##  1   -16    -16     1
##  2    12     -4     2
##  3   -18    -22     3
##  4    -1    -23     4
##  5     5    -18     5
##  6    -8    -26     6
##  7     9    -17     7
##  8   -15    -32     8
##  9    12    -20     9
## 10     6    -14    10
## # ... with 990 more rows

First, let see how many frequencies have been reached more than once (i.e. have duplicates).

count(tib, cumsum, sort = TRUE)

## # A tibble: 1,000 x 2
##    cumsum     n
##     <dbl> <int>
##  1   -111     1
##  2   -107     1
##  3   -103     1
##  4   -100     1
##  5    -98     1
##  6    -97     1
##  7    -96     1
##  8    -95     1
##  9    -94     1
## 10    -91     1
## # ... with 990 more rows
…
